class;id
VERDE;1
MADRUGUEIRO;2
LARANJA;3
EXPRESSO;4
PRATA;5
AMARELA;6
TRONCAL;7
VERMELHA;8
BRANCA;9
AZUL;10
TURISMO;11
Ponto;12
VERDE;1
MADRUGUEIRO;2
LARANJA;3
EXPRESSO;4
PRATA;5
AMARELA;6
TRONCAL;7
VERMELHA;8
BRANCA;9
AZUL;10
TURISMO;11
Ponto;12
